module gitlab.com/terminix/middleware

go 1.14

require (
	github.com/dgrijalva/jwt-go v3.2.0+incompatible
	github.com/gorilla/handlers v1.4.2
	github.com/gorilla/mux v1.7.4
	github.com/sirupsen/logrus v1.6.0
)
